{
	"ImportPath": "bitbucket.org/prysmakou/gora",
	"GoVersion": "go1.5",
	"Packages": [
		"./..."
	],
	"Deps": [
		{
			"ImportPath": "github.com/cloudfoundry-incubator/candiedyaml",
			"Rev": "2e03482782caf025b6abc16679ee6fe4af4b595b"
		}
	]
}
